{
  "debug":false,
  "acl":"https://changnethis.nl/to/an/aclendpoint",
  "admin_config":"../admin/config.php",
  "api_dir":"ocapi",
  "default_stock_status_id" : 5,
  "tax_class":{
    "none":0,
    "low":11,
    "high":12
  },
  "order_status":{
    "pending":1,
    "paid":17,
    "processing":2,
    "complete":5,
    "canceled":7
  }
}
